HS__80635;2
LIA_13003;154
FICA20401A;123
HS__31001;2
HS__80356;2
FIA_20101;66
HS__20402;4
UV__20401;13
FICA20401;31
FICA20401B;27
FY__20401;5
UY__20401;5
2FIA_15202;35
CPM0102SEC;1
PDIA11501;8
HS__35001;23
LICA15003;93
QICA11001;5
CEE0101;5
HS__80735;7
HS__80235;8
LICA15102;27
FT15401_2v2;30
FICA10101A;86
FICA14101;2
PIA_10105;10
FIA_11001A;35
LZA_20102;15
LISA35501;2
2PDIA15003;2
FICA14201A;53
FT20401_2v2;4
2TIA_20102;4
PIA_11011;8
PIA_19011;4
LICA20006;3
FIA_24001;11
FICA11011A;17
PIA_20002;1
LICA20007;18
LICA21001;4
LICA15001;21
FX11017_DELTA_FSC;1
FICA24201;5
PICA20001;4
UY__11101;2
UV__11101;3
PIZA20102;90
FIA_20105;46
PICA20101;45
RZ-19002B;1
PICA11101;3
TICA20003;11
LICA24001;14
FIA_11001;29
Luftzahl_D111;1
ANFAHRUEB;5
UV__19011B;3
UV__19011C;1
UV__19011A;1
HZ19011_Verr;1
FICA23101;21
TIA_12145;1
FICA23201;4
FICA14001A;17
FSC-Alarm3;3
FSC-Alarm6;3
FICA22101;23
QIA_22101;11
FICA22201;2
TIA_20104;24
FT_B115;10
TIA_11502;2
FICA21201;5
FICA14101A;6
FICA24101;31
FICA14102A;1
HS__21102;11
LICA22001A;8
FICA20202;101
FICA21101;41
LIA_32402;2
HS__23102;6
HS__22101;7
TDIA12021;3
FICA16001;39
TICA32402;8
LICA23001A;8
Mengenbilanz;2693
HS__80135;3
FIC_24301;2
QIA_21101;41
TIA_21101;1
TIA_23101;5
LICA20103;52
2FIA_20101;25
TIA_15106;46
TIA_11005;3
TIA_11006;4
2FICA14102B;23
TIA_80811;5
2FI__35006;54
TICA11004A;6
2PSLL90047;5
2LICA15003;7
TICA11004;99
LSL_70311;27
HS__70311;28
HC_70311_1;38
2LICA15501;14
2FI__12501_VER;2
2TIA_12004;1
TICA22101;2
TIA_11007;7
COILCNTL1;1
LY__32501;1
HS__20102;8
FICA20103;24
LICA20001;4
LICA20002;2
HS__21101;1
2FICA15201;5
2LICA15002;1
2FI__15101;2
PICA10001;3
PAL_80870;2
HC_70321_1;20
HS__70321;16
LSL_70321;12
FSC_OF_Alarm3;2
FSC_OF_Alarm6;2
FICA24202;6
FSL_70155;14
2FICA14102;14
HS__80535_2;5
TIA_24101;7
TIA_80521;3
LISA32501_m3;4
HV__70132;3
LISA32501;4
LIAS70131;3
HS__20302;6
LICA20101;2
2FIC_11530;11
2LISHL35307;1
HS__80825;1
2FICA80825;1
HV__70112;2
LIAS70111;2
4-FaultReset;1
HS__24101;5
2LSL15904;2
2FSL15904;2
2HS__15901;4
TI__20011;1
2HS__10102;2
2HS__15401;2
TI__20010;2
HS__24201;2
LIAS70121;2
HV__70122;2
FSL_70165;1
TICA10001;1
LAH_71502;1
HC_80145;1
HC_80245;1
XA__80246;1
XA__80146;1
HS__32403;1
LV_32501;1
LICA23001;1
HS__70351;3
LIA_13001;5
722FI004;1
LAH_81102;4
2UAH__90124;1
HS__80815;1
2PAH_15901;1
2PZHH11101;1
HS__70255;1
PIA_11101;2
UV__11011B;2
UV__11011A;2
UV__11011D3;1
UV__11011C;2
PZH_11011;1
UV__19018D2;1
FZH_19011;1
FZH_19011A;1
FZH_19011B;1
GOL_88481;3
2LAL_13003;1
NA__88401;1
LAH_70602;1
HS__35502;1
PICA11009;1
LISA80511;1
HS__80625;3
FICA15401;6
LISA80711;2
STATION 8;1
;1
TESTALM;1
